<svg xmlns="http://www.w3.org/2000/svg" width="43" height="43" viewBox="0 0 43 43">
  <g id="Group_1518" data-name="Group 1518" transform="translate(1 1)">
    <rect id="Rectangle_13" data-name="Rectangle 13" width="16.787" height="16.787" transform="translate(12.026 12.106)" fill="none" stroke="#5dff00" stroke-miterlimit="10" stroke-width="2"/>
    <path id="Path_5483" data-name="Path 5483" d="M2198.708,953.671h8.394v6.618" transform="translate(-2190.395 -948.183)" fill="none" stroke="#5dff00" stroke-miterlimit="10" stroke-width="2"/>
    <circle id="Ellipse_22" data-name="Ellipse 22" cx="2.26" cy="2.26" r="2.26" transform="translate(3.793 3.228)" fill="none" stroke="#5dff00" stroke-miterlimit="10" stroke-width="2"/>
    <circle id="Ellipse_23" data-name="Ellipse 23" cx="2.26" cy="2.26" r="2.26" transform="translate(22.195)" fill="none" stroke="#5dff00" stroke-miterlimit="10" stroke-width="2"/>
    <line id="Line_1" data-name="Line 1" y1="7.587" transform="translate(24.455 4.52)" fill="none" stroke="#5dff00" stroke-miterlimit="10" stroke-width="2"/>
    <path id="Path_5484" data-name="Path 5484" d="M2269.077,961.921v8.394h-6.618" transform="translate(-2233.565 -953.769)" fill="none" stroke="#5dff00" stroke-miterlimit="10" stroke-width="2"/>
    <circle id="Ellipse_24" data-name="Ellipse 24" cx="2.26" cy="2.26" r="2.26" transform="translate(33.252 3.632)" fill="none" stroke="#5dff00" stroke-miterlimit="10" stroke-width="2"/>
    <circle id="Ellipse_25" data-name="Ellipse 25" cx="2.26" cy="2.26" r="2.26" transform="translate(36.48 22.033)" fill="none" stroke="#5dff00" stroke-miterlimit="10" stroke-width="2"/>
    <line id="Line_2" data-name="Line 2" x2="7.587" transform="translate(28.894 24.293)" fill="none" stroke="#5dff00" stroke-miterlimit="10" stroke-width="2"/>
    <path id="Path_5485" data-name="Path 5485" d="M2256.6,1032.789h-8.394v-6.618" transform="translate(-2223.915 -997.277)" fill="none" stroke="#5dff00" stroke-miterlimit="10" stroke-width="2"/>
    <circle id="Ellipse_26" data-name="Ellipse 26" cx="2.26" cy="2.26" r="2.26" transform="translate(32.687 33.252)" fill="none" stroke="#5dff00" stroke-miterlimit="10" stroke-width="2"/>
    <circle id="Ellipse_27" data-name="Ellipse 27" cx="2.26" cy="2.26" r="2.26" transform="translate(14.285 36.48)" fill="none" stroke="#5dff00" stroke-miterlimit="10" stroke-width="2"/>
    <line id="Line_3" data-name="Line 3" y2="7.587" transform="translate(16.545 28.894)" fill="none" stroke="#5dff00" stroke-miterlimit="10" stroke-width="2"/>
    <path id="Path_5486" data-name="Path 5486" d="M2189.958,1019.815v-8.394h6.618" transform="translate(-2184.47 -987.289)" fill="none" stroke="#5dff00" stroke-miterlimit="10" stroke-width="2"/>
    <circle id="Ellipse_28" data-name="Ellipse 28" cx="2.26" cy="2.26" r="2.26" transform="translate(3.228 32.526)" fill="none" stroke="#5dff00" stroke-miterlimit="10" stroke-width="2"/>
    <circle id="Ellipse_29" data-name="Ellipse 29" cx="2.26" cy="2.26" r="2.26" transform="translate(0 14.124)" fill="none" stroke="#5dff00" stroke-miterlimit="10" stroke-width="2"/>
    <line id="Line_4" data-name="Line 4" x1="7.587" transform="translate(4.52 16.384)" fill="none" stroke="#5dff00" stroke-miterlimit="10" stroke-width="2"/>
  </g>
</svg>
