<svg xmlns="http://www.w3.org/2000/svg" width="37.207" height="49.7" viewBox="0 0 37.207 49.7">
  <g id="Group_1539" data-name="Group 1539" transform="translate(-1403.826 -2939)">
    <g id="Group_1398" data-name="Group 1398" transform="translate(546.626 1186.1)">
      <path id="Rectangle_5" data-name="Rectangle 5" d="M863.405,1785.3h24.8a5.19,5.19,0,0,1,5.205,5.205v16.231a5.19,5.19,0,0,1-5.205,5.205h-6.672l-5.489,6.2-5.205-6.2h-7.429a5.19,5.19,0,0,1-5.205-5.205v-16.231A5.19,5.19,0,0,1,863.405,1785.3Z" transform="translate(0 -16.541)" fill="none" stroke="#fff" stroke-linecap="round" stroke-linejoin="round" stroke-width="2"/>
      <circle id="Ellipse_7" data-name="Ellipse 7" cx="1.325" cy="1.325" r="1.325" transform="translate(880.063 1777.04)" fill="#fff" stroke="#fff" stroke-width="2"/>
      <circle id="Ellipse_8" data-name="Ellipse 8" cx="2.839" cy="2.839" r="2.839" transform="translate(872.964 1753.9)" stroke-width="2" stroke="#fff" stroke-linecap="round" stroke-linejoin="round" fill="none"/>
      <circle id="Ellipse_9" data-name="Ellipse 9" cx="1.325" cy="1.325" r="1.325" transform="translate(868.279 1777.04)" fill="#fff" stroke="#fff" stroke-width="2"/>
      <path id="Path_18" data-name="Path 18" d="M878.7,1825.2s2.366,1.7,7.808,1.7,8-1.7,8-1.7" transform="translate(-10.799 -37.56)" fill="none" stroke="#fff" stroke-linecap="round" stroke-linejoin="round" stroke-width="2"/>
      <line id="Line_16" data-name="Line 16" y2="8.139" transform="translate(875.804 1760.62)" fill="none" stroke="#fff" stroke-linecap="round" stroke-linejoin="round" stroke-width="2"/>
    </g>
  </g>
</svg>
